…
    Overview_Codes <- Overview_Codes[-1]
    Overview_Codes$Level[Overview_Codes$Level == "Category"] <- 4
    Overview_Codes$Level[Overview_Codes$Level == "Level.3"] <- 3
    Overview_Codes$Level[Overview_Codes$Level == "Level.2"] <- 2
    Overview_Codes$Level[Overview_Codes$Level == "Level.1"] <- 1

    Overview_Codes <- Overview_Codes[!duplicated(Overview_Codes$Code),]

    # Output the long format data frame
    print(Overview_Codes)

    ## # A tibble: 154 × 2
    ##    Level Code                                                        
    ##    <chr> <chr>                                                       
    ##  1 4     Entertainment                                               
    ##  2 3     Creative hobbies                                            
    ##  3 2     Creative hobby                                              
    ##  4 1     Creative hobby (e.g., singing, dancing, playing instruments)
    ##  5 3     Indoor leisure and resting                                  
    ##  6 2     Reading                                                     
    ##  7 2     News                                                        
    ##  8 1     Watching or reading news                                    
    ##  9 2     Hobby                                                       
    ## 10 1     Getting new information on ones hobby                       
    ## # ℹ 144 more rows
…
